<?xml version="1.0"?>
<robot name="hexapod_model" xmlns:xacro="http://ros.org/wiki/xacro">

  <!--
    NOTE: if you want to see urdf (where macros are been executed) or
          sdf (for Gazebo) output files type (in same folder of this file):
      rosrun xacro xacro -o hexapod_model.urdf hexapod_model.urdf.xacro
      gz sdf -p hexapod_model.urdf > hexapod_model.sdf
  -->
  <!--
    Complete analysis of AX-12 can be found here:
      https://www.ram.ewi.utwente.nl/aigaion/attachments/single/1015
  -->

  <!-- Import macro for Aragog -->
  <xacro:include filename="$(find hexapod)/models/hexapod_macro.urdf.xacro"/>

  <!-- Import macro for realsense-RS200 camera-->
  <xacro:include filename="$(find realsense_gazebo_plugin)/urdf/realsense-RS200.macro.xacro"/>

  <!-- Import macro for IMU -->
  <xacro:include filename="$(find hexapod)/models/imu.urdf.xacro"/>

  <!-- +++++++++++++++++++++++++++++++ robot formulation +++++++++++++++++++++++++++++++ -->

  <xacro:hexapod_model/>

  <!-- camera -->
  <xacro:realsense-rs200 parent_link="base_link" origin_x="${body_length/2}" origin_z="${body_height}"/>

  <joint name="realsense_joint" type="fixed">
    <parent link="base_link"/>
    <child link="camera_link"/>
    <origin rpy="0 0 0" xyz="${body_length/2} 0 ${body_height}"/>
  </joint>

  <!-- IMU -->
  <xacro:imu_sensor>
    <origin xyz="0 0 ${body_height/2}" rpy="0 0 0" />
  </xacro:imu_sensor>

</robot>
