<?xml version="1.0"?>
<robot name="hexapod_model" xmlns:xacro="http://ros.org/wiki/xacro">

  <!--
    NOTE: if you want to see urdf (where macros are been executed) or
          sdf (for Gazebo) output files type (in same folder of this file):
      rosrun xacro xacro -o hexapod_model.urdf hexapod_model.urdf.xacro
      gz sdf -p hexapod_model.urdf > hexapod_model.sdf
  -->
  <!--
    Complete analysis of AX-12 can be found here:
      https://www.ram.ewi.utwente.nl/aigaion/attachments/single/1015
  -->

  <!-- Import macro for Aragog and execute it -->
  <xacro:include filename="$(find hexapod)/models/hexapod_macro.urdf.xacro"/>
  <xacro:hexapod_model/>

</robot>
